[gd_scene load_steps=9 format=2]

[ext_resource path="res://scenes/Player.gd" type="Script" id=1]
[ext_resource path="res://sprites/walking/walking0000.png" type="Texture" id=2]
[ext_resource path="res://sprites/walking/walking0001.png" type="Texture" id=3]
[ext_resource path="res://sprites/walking/walking0002.png" type="Texture" id=4]
[ext_resource path="res://sprites/walking/walking0003.png" type="Texture" id=5]
[ext_resource path="res://sprites/walking/walking0004.png" type="Texture" id=6]

[sub_resource type="SpriteFrames" id=1]
animations = [ {
"frames": [ ExtResource( 2 ) ],
"loop": true,
"name": "idle",
"speed": 5.0
}, {
"frames": [ ExtResource( 2 ), ExtResource( 3 ), ExtResource( 4 ), ExtResource( 5 ), ExtResource( 6 ) ],
"loop": true,
"name": "walking",
"speed": 15.0
} ]

[sub_resource type="CapsuleShape2D" id=2]
radius = 15.1927
height = 100.621

[node name="Player" type="KinematicBody2D"]
position = Vector2( 49.1095, 58.9314 )
script = ExtResource( 1 )

[node name="AnimatedSprite" type="AnimatedSprite" parent="."]
scale = Vector2( 0.0926637, 0.137608 )
frames = SubResource( 1 )
animation = "walking"
frame = 2
playing = true

[node name="CollisionShape2D" type="CollisionShape2D" parent="."]
position = Vector2( -12.605, -1.89075 )
shape = SubResource( 2 )

[node name="Camera2D" type="Camera2D" parent="."]
current = true
smoothing_enabled = true
